%YAML 1.1
%TAG !u! tag:unity3d.com,2011:
--- !u!21 &2100000
Material:
  serializedVersion: 8
  m_ObjectHideFlags: 0
  m_CorrespondingSourceObject: {fileID: 0}
  m_PrefabInstance: {fileID: 0}
  m_PrefabAsset: {fileID: 0}
  m_Name: Lit Variant
  m_Shader: {fileID: 4800000, guid: 933532a4fcc9baf4fa0491de14d08ed7, type: 3}
  m_Parent: {fileID: 2100000, guid: 31321ba15b8f8eb4c954353edc038b1d, type: 2}
  m_ModifiedSerializedProperties: 24
  m_ValidKeywords:
  - _ALPHAPREMULTIPLY_ON
  - _ALPHATEST_ON
  - _SURFACE_TYPE_TRANSPARENT
  m_InvalidKeywords: []
  m_LightmapFlags: 4
  m_EnableInstancingVariants: 0
  m_DoubleSidedGI: 1
  m_CustomRenderQueue: 3000
  stringTagMap:
    RenderType: Transparent
  disabledShaderPasses:
  - DepthOnly
  - SHADOWCASTER
  m_LockedProperties: 
  m_SavedProperties:
    serializedVersion: 3
    m_TexEnvs: []
    m_Ints: []
    m_Floats:
    - _AlphaClip: 1
    - _AlphaToMask: 0
    - _BlendModePreserveSpecular: 1
    - _Cull: 0
    - _Cutoff: 0.187
    - _DstBlend: 10
    - _DstBlendAlpha: 10
    - _SrcBlend: 1
    - _Surface: 1
    - _WorkflowMode: 1
    - _ZWrite: 0
    m_Colors:
    - _BaseColor: {r: 0.5, g: 0.5, b: 0.5, a: 0.3882353}
    - _Color: {r: 0.5, g: 0.5, b: 0.5, a: 0.3882353}
  m_BuildTextureStacks: []
--- !u!114 &8393902826318379660
MonoBehaviour:
  m_ObjectHideFlags: 11
  m_CorrespondingSourceObject: {fileID: 0}
  m_PrefabInstance: {fileID: 0}
  m_PrefabAsset: {fileID: 0}
  m_GameObject: {fileID: 0}
  m_Enabled: 1
  m_EditorHideFlags: 0
  m_Script: {fileID: 11500000, guid: d0353a89b1f911e48b9e16bdc9f2e058, type: 3}
  m_Name: 
  m_EditorClassIdentifier: 
  version: 7
