# 3ds Max Wavefront OBJ Exporter v0.94b - (c)2007 guruware
# File Created: 16.05.2012 18:49:55

newmtl e29a9d2f_dds
	Ns 10.2212
	Ni 1.5000
	d 1.0000
	Tr 1.0000
	Tf 1.0000 1.0000 1.0000 
	illum 2
	Ka 0.0000 0.0000 0.0000
	Kd 1.0000 1.0000 1.0000
	Ks 0.1000 0.1000 0.1000
	Ke 0.0000 0.0000 0.0000
	map_Kd Gold.png
