# 3ds Max Wavefront OBJ Exporter v0.94b - (c)2007 guruware
# File Created: 16.05.2012 18:43:59

mtllib pigpot.mtl

#
# object DrawCall_0212
#

v  -0.3297 0.7766 -0.6528
v  -0.0089 1.1476 -0.5962
v  -0.0051 0.6258 -0.6565
v  -0.4908 1.1446 -0.6170
v  -0.3452 1.5144 -0.5680
v  -0.0127 1.6693 -0.5360
v  -0.4230 0.6130 -0.2707
v  -0.0206 0.3787 -0.2809
v  -0.6182 1.0669 -0.2265
v  -0.4406 1.5234 -0.1661
v  -0.2179 1.7153 -0.1414
v  -0.0307 1.7678 -0.1202
v  -0.4719 0.4925 0.0261
v  -0.0334 0.2880 0.0212
v  -0.6804 0.9962 0.0755
v  -0.5188 1.4896 0.1279
v  -0.2946 1.6984 0.1642
v  -0.0359 1.8187 -0.0004
v  -0.1615 1.8161 -0.0061
v  -0.0517 1.7874 0.3706
v  -0.4951 0.4740 0.3674
v  -0.0479 0.2623 0.3620
v  -0.7072 0.9519 0.4135
v  -0.5412 1.4299 0.4691
v  -0.2962 1.6543 0.5031
v  -0.4832 0.4452 0.7569
v  -0.0646 0.2615 0.7534
v  -0.6619 0.9014 0.8021
v  -0.4360 1.3632 0.8652
v  -0.2561 1.5872 0.7271
v  -0.1817 1.7844 0.3648
v  -0.1831 1.7186 0.6522
v  -0.3783 0.5264 1.1756
v  -0.0829 0.3950 1.1730
v  -0.5035 0.8542 1.2082
v  -0.3849 1.1863 1.2517
v  -0.0896 1.3283 1.2807
v  -0.0739 1.5157 0.9037
v  -0.0847 0.8680 1.1901
v  -0.0671 1.6429 0.7395
v  -0.0639 1.7208 0.6591
v  0.3173 0.7780 -0.6251
v  0.4731 1.1468 -0.5758
v  0.3220 1.5160 -0.5395
v  0.3783 0.6148 -0.2365
v  0.5670 1.0695 -0.1758
v  0.3829 1.5252 -0.1310
v  0.1581 1.7161 -0.1253
v  0.4023 0.4945 0.0635
v  0.6035 0.9991 0.1305
v  0.4359 1.4918 0.1688
v  0.2085 1.6995 0.1857
v  0.0898 1.8166 0.0047
v  0.3963 0.4760 0.4055
v  0.6014 0.9548 0.4695
v  0.4292 1.4321 0.5105
v  0.1812 1.6553 0.5235
v  0.3513 0.4470 0.7926
v  0.5235 0.9041 0.8529
v  0.2909 1.3648 0.8962
v  0.1224 1.5881 0.7431
v  0.0555 1.7191 0.6624
v  0.0784 1.7849 0.3759
v  0.2107 0.5277 1.2008
v  0.3312 0.8561 1.2439
v  0.2078 1.1877 1.2771
v  -0.0934 1.1892 -0.6768
v  -0.0333 1.1303 -0.6503
v  -0.0475 1.1949 -0.5194
v  -0.1206 1.2802 -0.7420
v  -0.0527 1.2547 -0.5457
v  -0.0922 1.3803 -0.8029
v  -0.0379 1.3134 -0.5690
v  -0.0094 1.4556 -0.8671
v  0.0060 1.3703 -0.6486
v  0.1090 1.4551 -0.9220
v  0.1192 1.4042 -0.7496
v  0.2186 1.3854 -0.9476
v  0.2143 1.3300 -0.7919
v  0.2734 1.2599 -0.9662
v  0.2170 1.2319 -0.7972
v  0.2463 1.1314 -0.9723
v  0.1887 1.1366 -0.7831
v  0.1444 1.0519 -0.9708
v  0.1116 1.0811 -0.7663
v  0.0040 1.0529 -0.9671
v  0.0139 1.0822 -0.7567
v  -0.1588 1.1381 -0.9587
v  -0.0749 1.1375 -0.7629
v  -0.2245 1.2768 -0.9750
v  -0.1336 1.2269 -0.8008
v  -0.2285 1.4568 -1.0176
v  -0.1331 1.3421 -0.8395
v  -0.1465 1.5858 -1.0614
v  -0.0778 1.4539 -0.9197
v  -0.0012 1.6472 -1.1276
v  0.0343 1.5057 -1.0023
v  0.1704 1.6114 -1.2034
v  0.1688 1.4622 -1.0701
v  0.3045 1.4793 -1.2735
v  0.2687 1.3358 -1.1195
v  0.3348 1.2994 -1.3246
v  0.2826 1.1745 -1.1429
v  -0.4997 1.5179 0.6217
v  -0.4189 1.5309 0.5280
v  -0.8845 1.7517 0.3970
v  -0.6402 1.4003 0.3463
v  -0.7226 1.3908 0.5502
v  -0.4425 1.3894 0.5735
v  0.3699 1.5126 0.6590
v  0.6820 1.8554 0.4631
v  0.2968 1.5015 0.5588
v  0.5613 1.4468 0.3974
v  0.6258 1.4604 0.6073
v  0.3587 1.3734 0.6078
v  0.5043 0.0074 0.6299
v  0.5083 0.0037 0.4407
v  0.3655 0.0101 0.5332
v  0.2331 0.4293 0.5623
v  0.0505 0.3442 0.4428
v  0.2373 0.4239 0.3172
v  0.5780 0.0008 -0.1175
v  0.5821 -0.0029 -0.3067
v  0.4392 0.0036 -0.2141
v  0.2998 0.5031 -0.0215
v  0.0961 0.4318 -0.1765
v  0.3035 0.5614 -0.2597
v  -0.6256 -0.0056 -0.3583
v  -0.4911 0.0015 -0.2539
v  -0.6377 -0.0019 -0.1695
v  -0.3709 0.5016 -0.0501
v  -0.1543 0.4312 -0.1872
v  -0.3545 0.5599 -0.2878
v  -0.5910 0.0012 0.3936
v  -0.4565 0.0083 0.4981
v  -0.6031 0.0048 0.5825
v  -0.3292 0.4280 0.5383
v  -0.1366 0.3438 0.4348
v  -0.3123 0.4227 0.2936
# 139 vertices

vn -0.4480 -0.3588 -0.8189
vn 0.0422 0.1149 -0.9925
vn 0.0372 -0.5397 -0.8410
vn -0.6538 0.0862 -0.7518
vn -0.4850 0.5177 -0.7048
vn 0.0277 0.7244 -0.6889
vn -0.7027 -0.5909 -0.3963
vn 0.0207 -0.8998 -0.4358
vn -0.9651 0.0079 -0.2618
vn -0.7895 0.5883 -0.1747
vn -0.4893 0.8345 -0.2533
vn 0.0138 0.9288 -0.3702
vn -0.7062 -0.6741 -0.2163
vn 0.0098 -0.9839 -0.1784
vn -0.9891 -0.0309 -0.1443
vn -0.8350 0.5481 -0.0477
vn -0.6776 0.7354 -0.0015
vn 0.0048 0.9876 -0.1571
vn -0.3642 0.9105 -0.1960
vn -0.0085 0.9880 0.1545
vn -0.7262 -0.6855 -0.0523
vn 0.0042 -0.9989 -0.0473
vn -0.9991 -0.0251 0.0347
vn -0.8407 0.5150 0.1674
vn -0.6828 0.7040 0.1954
vn -0.7097 -0.6918 0.1330
vn -0.0039 -0.9897 0.1433
vn -0.9766 -0.0054 0.2150
vn -0.7049 0.6069 0.3672
vn -0.5025 0.6953 0.5138
vn -0.3744 0.9178 0.1321
vn -0.3680 0.8069 0.4621
vn -0.4740 -0.4993 0.7253
vn -0.0293 -0.6939 0.7194
vn -0.6283 -0.0986 0.7717
vn -0.4967 0.3268 0.8040
vn -0.0372 0.5415 0.8399
vn -0.0259 0.8240 0.5660
vn -0.0422 -0.1157 0.9924
vn -0.0312 0.7152 0.6983
vn -0.0223 0.8781 0.4779
vn 0.5179 -0.3568 -0.7775
vn 0.7152 0.0893 -0.6932
vn 0.5408 0.5202 -0.6610
vn 0.7366 -0.5877 -0.3347
vn 0.9839 0.0121 -0.1784
vn 0.7989 0.5918 -0.1069
vn 0.5054 0.8368 -0.2107
vn 0.7252 -0.6708 -0.1551
vn 0.9979 -0.0265 -0.0591
vn 0.8336 0.5519 0.0238
vn 0.6717 0.7387 0.0564
vn 0.3755 0.9122 -0.1642
vn 0.7311 -0.6822 0.0100
vn 0.9926 -0.0206 0.1199
vn 0.8210 0.5187 0.2386
vn 0.6604 0.7070 0.2530
vn 0.6988 -0.6887 0.1932
vn 0.9547 -0.0009 0.2974
vn 0.6682 0.6101 0.4258
vn 0.4540 0.6974 0.5546
vn 0.3238 0.8083 0.4917
vn 0.3579 0.9193 0.1635
vn 0.4126 -0.4973 0.7632
vn 0.5605 -0.0960 0.8225
vn 0.4246 0.3291 0.8434
vn -0.9203 -0.2493 0.3016
vn -0.7313 -0.6398 0.2364
vn -0.9404 -0.1911 0.2812
vn -0.8952 0.2989 0.3307
vn -0.9388 0.1395 0.3150
vn -0.5940 0.7242 0.3504
vn -0.7865 0.5067 0.3532
vn -0.0845 0.9391 0.3331
vn -0.3371 0.8715 0.3562
vn 0.4088 0.8730 0.2660
vn 0.3147 0.9048 0.2867
vn 0.7831 0.5501 0.2900
vn 0.9001 0.4127 0.1395
vn 0.9417 0.0654 0.3299
vn 0.9691 -0.0625 0.2387
vn 0.8260 -0.4972 0.2658
vn 0.7781 -0.5771 0.2482
vn 0.3429 -0.9209 0.1855
vn 0.2718 -0.9457 0.1779
vn -0.2422 -0.9568 0.1609
vn -0.2782 -0.9493 0.1466
vn -0.7307 -0.6128 0.3008
vn -0.6418 -0.7283 0.2400
vn -0.8814 -0.0437 0.4704
vn -0.8825 -0.2268 0.4120
vn -0.5857 0.4564 0.6698
vn -0.7663 0.2989 0.5687
vn -0.1139 0.6690 0.7345
vn -0.2475 0.6866 0.6836
vn 0.2864 0.6557 0.6986
vn 0.2812 0.7014 0.6549
vn 0.5845 0.5260 0.6178
vn 0.6412 0.5240 0.5606
vn 0.8364 0.2843 0.4686
vn 0.9044 0.1986 0.3777
vn 0.9453 0.0687 0.3188
vn 0.9546 0.0567 0.2925
vn 0.2229 0.3179 0.9216
vn 0.9008 0.4172 -0.1203
vn -0.6690 0.7067 -0.2301
vn -0.0043 -0.5199 -0.8542
vn -0.6027 -0.6347 0.4836
vn 0.6571 -0.6838 0.3171
vn -0.3830 0.2228 0.8965
vn 0.4383 0.8797 -0.1844
vn -0.9723 0.1241 -0.1982
vn 0.2319 -0.4834 -0.8441
vn 0.7262 -0.4269 0.5389
vn -0.4407 -0.8557 0.2711
vn -0.5596 0.3758 -0.7387
vn -0.6418 0.4665 0.6087
vn 0.6174 0.7796 -0.1051
vn -0.3317 -0.3190 -0.8878
vn 0.7196 0.6925 0.0519
vn -0.4252 0.0606 0.9030
vn -0.5913 0.4622 -0.6609
vn -0.5640 0.4260 0.7074
vn 0.6544 0.7507 0.0905
vn -0.4403 -0.0131 -0.8978
vn 0.7685 0.5952 0.2347
vn -0.5209 -0.2554 0.8145
vn -0.4998 -0.4284 -0.7528
vn 0.6629 -0.7479 -0.0344
vn -0.6437 -0.4648 0.6080
vn -0.5153 0.0109 0.8569
vn 0.7883 -0.5918 -0.1681
vn -0.4506 0.2534 -0.8560
vn -0.5854 -0.4693 -0.6611
vn 0.6100 -0.7765 0.1580
vn -0.6187 -0.3791 0.6881
vn -0.4079 0.3176 0.8560
vn 0.7246 -0.6891 0.0097
vn -0.3459 -0.0627 -0.9362
# 139 vertex normals

vt 0.7790 0.5525 0.0000
vt 0.9000 0.4634 0.0000
vt 0.8967 0.6074 0.0000
vt 0.6907 0.3851 0.0000
vt 0.7795 0.2458 0.0000
vt 0.8878 0.3833 0.0000
vt 0.6988 0.3886 0.0000
vt 1.0000 0.1677 0.0000
vt 0.0930 0.8280 0.0000
vt 0.0033 1.0000 0.0000
vt 0.0033 0.8180 0.0000
vt 0.1167 1.0000 0.0000
vt 0.2675 0.8439 0.0000
vt 0.2708 1.0000 0.0000
vt 0.4107 0.8346 0.0000
vt 0.3992 1.0000 0.0000
vt 0.5427 1.0000 0.0000
vt 0.5147 0.8210 0.0000
vt 0.5403 0.8205 0.0000
vt 0.0870 0.6863 0.0000
vt 0.0033 0.6816 0.0000
vt 0.2774 0.6861 0.0000
vt 0.4214 0.6850 0.0000
vt 0.5155 0.6783 0.0000
vt 0.6495 1.0000 0.0000
vt 0.5563 1.0000 0.0000
vt 0.6499 0.7866 0.0000
vt 0.0922 0.4924 0.0000
vt 0.0053 0.4873 0.0000
vt 0.2845 0.4901 0.0000
vt 0.4296 0.4783 0.0000
vt 0.5445 0.4444 0.0000
vt 0.1179 0.3179 0.0000
vt 0.0195 0.3200 0.0000
vt 0.2962 0.3113 0.0000
vt 0.4580 0.3113 0.0000
vt 0.5438 0.3779 0.0000
vt 0.5595 0.7758 0.0000
vt 0.5588 0.5471 0.0000
vt 0.2131 0.0000 0.0000
vt 0.1203 0.0000 0.0000
vt 0.3050 0.0000 0.0000
vt 0.4315 -0.0033 0.0000
vt 0.5471 0.0033 0.0000
vt 0.6115 0.2961 0.0000
vt 0.9967 0.6595 0.0000
vt 0.9967 0.4181 0.0000
vt 0.7791 0.5774 0.0000
vt 0.6848 0.3873 0.0000
vt 0.7845 0.2291 0.0000
vt 0.9967 0.1618 0.0000
vt 0.6384 0.3716 0.0000
vt 0.6527 0.5474 0.0000
vt 0.0000 0.1452 0.0000
vt 0.1641 0.0000 0.0000
vt 0.0000 0.0000 0.0000
vt 0.1631 0.1497 0.0000
vt 0.4458 0.1524 0.0000
vt 0.5161 0.0000 0.0000
vt 0.6344 0.1498 0.0000
vt 0.8630 0.0000 0.0000
vt 0.8743 0.1546 0.0000
vt 1.0000 0.1499 0.0000
vt 1.0000 0.0000 0.0000
vt 0.0000 0.8180 0.0000
vt 0.0000 1.0000 0.0000
vt 0.2807 0.8406 0.0000
vt 0.0000 0.6816 0.0000
vt -0.0012 0.4873 0.0000
vt 0.1079 0.0045 0.0000
vt -0.0059 0.0045 0.0000
vt -0.0059 0.1521 0.0000
vt 0.2210 0.0045 0.0000
vt 0.0764 0.1506 0.0000
vt 0.3139 0.0045 0.0000
vt 0.2094 0.1528 0.0000
vt 0.4324 0.0045 0.0000
vt 0.2931 0.1506 0.0000
vt 0.5100 0.0045 0.0000
vt 0.4011 0.1506 0.0000
vt 0.5956 0.0045 0.0000
vt 0.5233 0.1483 0.0000
vt 0.6741 0.0045 0.0000
vt 0.5903 0.1511 0.0000
vt 0.7419 0.0045 0.0000
vt 0.6747 0.1524 0.0000
vt 0.8021 0.0045 0.0000
vt 0.7432 0.1476 0.0000
vt 0.8627 0.0045 0.0000
vt 0.7999 0.1493 0.0000
vt 0.9830 0.0045 0.0000
vt 0.8983 0.1471 0.0000
vt 1.1201 0.0045 0.0000
vt 0.9977 0.1530 0.0000
vt 1.2030 0.0045 0.0000
vt 1.0896 0.1483 0.0000
vt 1.2859 0.0045 0.0000
vt 1.2102 0.1483 0.0000
vt 1.3722 0.0045 0.0000
vt 1.2723 0.1483 0.0000
vt 1.4771 0.0045 0.0000
vt 1.4343 0.1483 0.0000
vt 1.5646 0.0045 0.0000
vt 1.5358 0.1483 0.0000
vt 1.6288 0.0045 0.0000
vt 1.6288 0.1483 0.0000
vt 0.1575 0.7288 0.0000
vt 0.2129 0.7501 0.0000
vt 0.5980 0.4321 0.0000
vt 0.3556 0.8957 0.0000
vt 0.9964 0.4006 0.0000
vt 0.9238 0.2133 0.0000
vt 0.7949 0.4090 0.0000
vt 0.0929 0.7078 0.0000
vt 0.0950 0.8956 0.0000
vt 0.9535 0.5869 0.0000
vt 0.0360 0.1666 0.0000
vt 0.2512 0.7806 0.0000
vt 0.3420 0.7869 0.0000
vt 0.3855 0.9931 0.0000
vt 0.2006 0.9472 0.0000
vt 0.1940 0.9933 0.0000
vt 0.3822 0.7793 0.0000
vt 0.3250 0.9940 0.0000
vt 0.2236 0.7926 0.0000
vt 0.2117 0.9648 0.0000
# 126 texture coords

g DrawCall_0212
usemtl eb8da80b_dds
s 1
f 1/1/1 2/2/2 3/3/3 
f 4/4/4 2/2/2 1/1/1 
f 5/5/5 2/6/2 4/7/4 
f 6/8/6 2/6/2 5/5/5 
f 7/9/7 3/10/3 8/11/8 
f 1/12/1 3/10/3 7/9/7 
f 9/13/9 1/12/1 7/9/7 
f 4/14/4 1/12/1 9/13/9 
f 10/15/10 4/14/4 9/13/9 
f 5/16/5 4/14/4 10/15/10 
f 6/17/6 5/16/5 11/18/11 
f 6/17/6 11/18/11 12/19/12 
f 13/20/13 8/11/8 14/21/14 
f 7/9/7 8/11/8 13/20/13 
f 15/22/15 7/9/7 13/20/13 
f 9/13/9 7/9/7 15/22/15 
f 16/23/16 9/13/9 15/22/15 
f 10/15/10 9/13/9 16/23/16 
f 11/18/11 10/15/10 17/24/17 
f 18/25/18 19/26/19 20/27/20 
f 21/28/21 14/21/14 22/29/22 
f 13/20/13 14/21/14 21/28/21 
f 23/30/23 13/20/13 21/28/21 
f 15/22/15 13/20/13 23/30/23 
f 24/31/24 15/22/15 23/30/23 
f 16/23/16 15/22/15 24/31/24 
f 17/24/17 16/23/16 25/32/25 
f 26/33/26 22/29/22 27/34/27 
f 21/28/21 22/29/22 26/33/26 
f 28/35/28 21/28/21 26/33/26 
f 23/30/23 21/28/21 28/35/28 
f 29/36/29 23/30/23 28/35/28 
f 24/31/24 23/30/23 29/36/29 
f 30/37/30 24/31/24 29/36/29 
f 20/27/20 31/38/31 32/39/32 
f 33/40/33 27/34/27 34/41/34 
f 26/33/26 27/34/27 33/40/33 
f 35/42/35 26/33/26 33/40/33 
f 28/35/28 26/33/26 35/42/35 
f 36/43/36 28/35/28 35/42/35 
f 29/36/29 28/35/28 36/43/36 
f 37/44/37 29/36/29 36/43/36 
f 38/45/38 29/36/29 37/44/37 
f 34/46/34 39/47/39 33/48/33 
f 33/48/33 39/47/39 35/49/35 
f 35/49/35 39/47/39 36/50/36 
f 36/50/36 39/47/39 37/51/37 
f 40/52/40 30/37/30 38/45/38 
f 38/45/38 30/37/30 29/36/29 
f 20/27/20 32/39/32 41/53/41 
f 25/32/25 24/31/24 30/37/30 
f 25/32/25 16/23/16 24/31/24 
f 17/24/17 10/15/10 16/23/16 
f 19/26/19 31/38/31 20/27/20 
f 11/18/11 5/16/5 10/15/10 
f 12/54/12 19/55/19 18/56/18 
f 19/55/19 12/54/12 11/57/11 
f 11/57/11 17/58/17 19/55/19 
f 31/59/31 19/55/19 17/58/17 
f 17/58/17 25/60/25 31/59/31 
f 25/60/25 32/61/32 31/59/31 
f 32/61/32 25/60/25 30/62/30 
f 30/62/30 40/63/40 32/61/32 
f 41/64/41 32/61/32 40/63/40 
f 3/3/3 2/2/2 42/1/42 
f 42/1/42 2/2/2 43/4/43 
f 43/7/43 2/6/2 44/5/44 
f 44/5/44 2/6/2 6/8/6 
f 8/65/8 3/66/3 45/9/45 
f 45/9/45 3/66/3 42/12/42 
f 45/9/45 42/12/42 46/67/46 
f 46/67/46 42/12/42 43/14/43 
f 46/67/46 43/14/43 47/15/47 
f 47/15/47 43/14/43 44/16/44 
f 48/18/48 44/16/44 6/17/6 
f 12/19/12 48/18/48 6/17/6 
f 14/68/14 8/65/8 49/20/49 
f 49/20/49 8/65/8 45/9/45 
f 49/20/49 45/9/45 50/22/50 
f 50/22/50 45/9/45 46/67/46 
f 50/22/50 46/67/46 51/23/51 
f 51/23/51 46/67/46 47/15/47 
f 52/24/52 47/15/47 48/18/48 
f 20/27/20 53/26/53 18/25/18 
f 22/69/22 14/68/14 54/28/54 
f 54/28/54 14/68/14 49/20/49 
f 54/28/54 49/20/49 55/30/55 
f 55/30/55 49/20/49 50/22/50 
f 55/30/55 50/22/50 56/31/56 
f 56/31/56 50/22/50 51/23/51 
f 57/32/57 51/23/51 52/24/52 
f 27/34/27 22/69/22 58/33/58 
f 58/33/58 22/69/22 54/28/54 
f 58/33/58 54/28/54 59/35/59 
f 59/35/59 54/28/54 55/30/55 
f 59/35/59 55/30/55 60/36/60 
f 60/36/60 55/30/55 56/31/56 
f 60/36/60 56/31/56 61/37/61 
f 62/39/62 63/38/63 20/27/20 
f 34/41/34 27/34/27 64/40/64 
f 64/40/64 27/34/27 58/33/58 
f 64/40/64 58/33/58 65/42/65 
f 65/42/65 58/33/58 59/35/59 
f 65/42/65 59/35/59 66/43/66 
f 66/43/66 59/35/59 60/36/60 
f 66/43/66 60/36/60 37/44/37 
f 37/44/37 60/36/60 38/45/38 
f 64/48/64 39/47/39 34/46/34 
f 65/49/65 39/47/39 64/48/64 
f 66/50/66 39/47/39 65/49/65 
f 37/51/37 39/47/39 66/50/66 
f 38/45/38 61/37/61 40/52/40 
f 60/36/60 61/37/61 38/45/38 
f 41/53/41 62/39/62 20/27/20 
f 61/37/61 56/31/56 57/32/57 
f 56/31/56 51/23/51 57/32/57 
f 51/23/51 47/15/47 52/24/52 
f 20/27/20 63/38/63 53/26/53 
f 47/15/47 44/16/44 48/18/48 
f 18/56/18 53/55/53 12/54/12 
f 48/57/48 12/54/12 53/55/53 
f 53/55/53 52/58/52 48/57/48 
f 52/58/52 53/55/53 63/59/63 
f 63/59/63 57/60/57 52/58/52 
f 63/59/63 62/61/62 57/60/57 
f 61/62/61 57/60/57 62/61/62 
f 62/61/62 40/63/40 61/62/61 
f 40/63/40 62/61/62 41/64/41 
f 67/70/67 68/71/68 69/72/69 
f 70/73/70 67/70/67 71/74/71 
f 69/72/69 71/74/71 67/70/67 
f 72/75/72 70/73/70 73/76/73 
f 71/74/71 73/76/73 70/73/70 
f 74/77/74 72/75/72 75/78/75 
f 73/76/73 75/78/75 72/75/72 
f 76/79/76 74/77/74 77/80/77 
f 75/78/75 77/80/77 74/77/74 
f 78/81/78 76/79/76 79/82/79 
f 77/80/77 79/82/79 76/79/76 
f 80/83/80 78/81/78 81/84/81 
f 79/82/79 81/84/81 78/81/78 
f 82/85/82 80/83/80 83/86/83 
f 81/84/81 83/86/83 80/83/80 
f 84/87/84 82/85/82 85/88/85 
f 83/86/83 85/88/85 82/85/82 
f 86/89/86 84/87/84 87/90/87 
f 85/88/85 87/90/87 84/87/84 
f 88/91/88 86/89/86 89/92/89 
f 87/90/87 89/92/89 86/89/86 
f 90/93/90 88/91/88 91/94/91 
f 89/92/89 91/94/91 88/91/88 
f 92/95/92 90/93/90 93/96/93 
f 91/94/91 93/96/93 90/93/90 
f 94/97/94 92/95/92 95/98/95 
f 93/96/93 95/98/95 92/95/92 
f 96/99/96 94/97/94 97/100/97 
f 95/98/95 97/100/97 94/97/94 
f 98/101/98 96/99/96 99/102/99 
f 97/100/97 99/102/99 96/99/96 
f 100/103/100 98/101/98 101/104/101 
f 99/102/99 101/104/101 98/101/98 
f 102/105/102 100/103/100 103/106/103 
f 101/104/101 103/106/103 100/103/100 
f 104/107/104 105/108/105 106/109/106 
f 107/110/107 106/109/106 105/108/105 
f 108/111/108 106/112/106 107/113/107 
f 104/107/104 106/109/106 108/114/108 
f 105/108/105 104/107/104 109/115/109 
f 107/110/107 105/108/105 109/115/109 
f 108/111/108 107/113/107 109/116/109 
f 104/107/104 108/114/108 109/115/109 
f 110/107/110 111/109/111 112/108/112 
f 113/110/113 112/108/112 111/109/111 
f 114/111/114 113/113/113 111/112/111 
f 110/107/110 114/114/114 111/109/111 
f 112/108/112 115/115/115 110/107/110 
f 113/110/113 115/115/115 112/108/112 
f 114/111/114 115/116/115 113/113/113 
f 110/107/110 115/115/115 114/114/114 
f 116/117/116 117/117/117 118/117/118 
f 117/118/117 116/119/116 119/120/119 
f 116/119/116 118/118/118 119/120/119 
f 120/121/120 119/120/119 118/118/118 
f 121/122/121 117/118/117 119/120/119 
f 117/123/117 121/124/121 118/125/118 
f 120/126/120 118/125/118 121/124/121 
f 122/117/122 123/117/123 124/117/124 
f 123/118/123 122/119/122 125/120/125 
f 122/119/122 124/118/124 125/120/125 
f 126/121/126 125/120/125 124/118/124 
f 127/122/127 123/118/123 125/120/125 
f 123/123/123 127/124/127 124/125/124 
f 126/126/126 124/125/124 127/124/127 
f 128/117/128 129/117/129 130/117/130 
f 130/119/130 131/120/131 128/118/128 
f 129/118/129 131/120/131 130/119/130 
f 131/120/131 129/118/129 132/121/132 
f 128/118/128 131/120/131 133/122/133 
f 133/124/133 129/125/129 128/123/128 
f 129/125/129 133/124/133 132/126/132 
f 134/117/134 135/117/135 136/117/136 
f 136/119/136 137/120/137 134/118/134 
f 135/118/135 137/120/137 136/119/136 
f 137/120/137 135/118/135 138/121/138 
f 134/118/134 137/120/137 139/122/139 
f 139/124/139 135/125/135 134/123/134 
f 135/125/135 139/124/139 138/126/138 
# 0 polygons - 207 triangles

