%YAML 1.1
%TAG !u! tag:unity3d.com,2011:
--- !u!74 &7400000
AnimationClip:
  m_ObjectHideFlags: 0
  m_CorrespondingSourceObject: {fileID: 0}
  m_PrefabInstance: {fileID: 0}
  m_PrefabAsset: {fileID: 0}
  m_Name: EXTRA_ANIM_SHOOTING_RIGHT_HAND
  serializedVersion: 6
  m_Legacy: 0
  m_Compressed: 0
  m_UseHighQualityCurve: 1
  m_RotationCurves:
  - curve:
      serializedVersion: 2
      m_Curve:
      - serializedVersion: 3
        time: 0.125
        value: {x: -0.011432838, y: -0.3977223, z: 0.37710807, w: 0.8363467}
        inSlope: {x: 0, y: 0, z: 0, w: 0}
        outSlope: {x: 0, y: 0, z: 0, w: 0}
        tangentMode: 0
        weightedMode: 0
        inWeight: {x: 0, y: 0, z: 0, w: 0}
        outWeight: {x: 0, y: 0, z: 0, w: 0}
      - serializedVersion: 3
        time: 0.25
        value: {x: -0.25656673, y: -0.27948037, z: 0.2382025, w: 0.8940491}
        inSlope: {x: 0, y: 0, z: 0, w: 0}
        outSlope: {x: 0, y: 0, z: 0, w: 0}
        tangentMode: 0
        weightedMode: 0
        inWeight: {x: 0, y: 0, z: 0, w: 0}
        outWeight: {x: 0, y: 0, z: 0, w: 0}
      - serializedVersion: 3
        time: 0.625
        value: {x: -0.5127965, y: 0.24949893, z: -0.30071014, w: 0.76443666}
        inSlope: {x: 0, y: 0, z: 0, w: 0}
        outSlope: {x: 0, y: 0, z: 0, w: 0}
        tangentMode: 0
        weightedMode: 0
        inWeight: {x: 0, y: 0, z: 0, w: 0}
        outWeight: {x: 0, y: 0, z: 0, w: 0}
      - serializedVersion: 3
        time: 1
        value: {x: -0.6782842, y: 0.25588343, z: -0.36786148, w: 0.58235055}
        inSlope: {x: 0, y: 0, z: 0, w: 0}
        outSlope: {x: 0, y: 0, z: 0, w: 0}
        tangentMode: 0
        weightedMode: 0
        inWeight: {x: 0, y: 0, z: 0, w: 0}
        outWeight: {x: 0, y: 0, z: 0, w: 0}
      m_PreInfinity: 2
      m_PostInfinity: 2
      m_RotationOrder: 4
    path: OPENSPACE_MODEL_ARMATURE_OBJECT_OBJECT/ROOT_CHANNEL/Channel 11
  - curve:
      serializedVersion: 2
      m_Curve:
      - serializedVersion: 3
        time: 0.125
        value: {x: 0.2519105, y: 0.018874576, z: 0.45530203, w: 0.85374755}
        inSlope: {x: 0, y: 0, z: 0, w: 0}
        outSlope: {x: 0, y: 0, z: 0, w: 0}
        tangentMode: 0
        weightedMode: 0
        inWeight: {x: 0, y: 0, z: 0, w: 0}
        outWeight: {x: 0, y: 0, z: 0, w: 0}
      - serializedVersion: 3
        time: 0.25
        value: {x: 0.11705176, y: 0.07046599, z: 0.21983029, w: 0.9659234}
        inSlope: {x: 0, y: 0, z: 0, w: 0}
        outSlope: {x: 0, y: 0, z: 0, w: 0}
        tangentMode: 0
        weightedMode: 0
        inWeight: {x: 0, y: 0, z: 0, w: 0}
        outWeight: {x: 0, y: 0, z: 0, w: 0}
      - serializedVersion: 3
        time: 0.625
        value: {x: -0.101670235, y: 0.26625642, z: -0.51731515, w: 0.8069422}
        inSlope: {x: 0, y: 0, z: 0, w: 0}
        outSlope: {x: 0, y: 0, z: 0, w: 0}
        tangentMode: 0
        weightedMode: 0
        inWeight: {x: 0, y: 0, z: 0, w: 0}
        outWeight: {x: 0, y: 0, z: 0, w: 0}
      - serializedVersion: 3
        time: 1
        value: {x: -0.24122155, y: 0.19548215, z: -0.64280134, w: 0.7002894}
        inSlope: {x: 0, y: 0, z: 0, w: 0}
        outSlope: {x: 0, y: 0, z: 0, w: 0}
        tangentMode: 0
        weightedMode: 0
        inWeight: {x: 0, y: 0, z: 0, w: 0}
        outWeight: {x: 0, y: 0, z: 0, w: 0}
      m_PreInfinity: 2
      m_PostInfinity: 2
      m_RotationOrder: 4
    path: OPENSPACE_MODEL_ARMATURE_OBJECT_OBJECT/ROOT_CHANNEL/Channel 20
  - curve:
      serializedVersion: 2
      m_Curve:
      - serializedVersion: 3
        time: 0.125
        value: {x: 0.41696945, y: -0.29389378, z: -0.22201046, w: 0.8309478}
        inSlope: {x: 0, y: 0, z: 0, w: 0}
        outSlope: {x: 0, y: 0, z: 0, w: 0}
        tangentMode: 0
        weightedMode: 0
        inWeight: {x: 0, y: 0, z: 0, w: 0}
        outWeight: {x: 0, y: 0, z: 0, w: 0}
      - serializedVersion: 3
        time: 0.25
        value: {x: 0.26745215, y: -0.42333207, z: -0.33555636, w: 0.7979106}
        inSlope: {x: 0, y: 0, z: 0, w: 0}
        outSlope: {x: 0, y: 0, z: 0, w: 0}
        tangentMode: 0
        weightedMode: 0
        inWeight: {x: 0, y: 0, z: 0, w: 0}
        outWeight: {x: 0, y: 0, z: 0, w: 0}
      - serializedVersion: 3
        time: 0.625
        value: {x: -0.32656083, y: -0.4577216, z: -0.61323845, w: 0.554786}
        inSlope: {x: 0, y: 0, z: 0, w: 0}
        outSlope: {x: 0, y: 0, z: 0, w: 0}
        tangentMode: 0
        weightedMode: 0
        inWeight: {x: 0, y: 0, z: 0, w: 0}
        outWeight: {x: 0, y: 0, z: 0, w: 0}
      - serializedVersion: 3
        time: 1
        value: {x: -0.46744806, y: -0.55001414, z: -0.5037098, w: 0.47460842}
        inSlope: {x: 0, y: 0, z: 0, w: 0}
        outSlope: {x: 0, y: 0, z: 0, w: 0}
        tangentMode: 0
        weightedMode: 0
        inWeight: {x: 0, y: 0, z: 0, w: 0}
        outWeight: {x: 0, y: 0, z: 0, w: 0}
      m_PreInfinity: 2
      m_PostInfinity: 2
      m_RotationOrder: 4
    path: OPENSPACE_MODEL_ARMATURE_OBJECT_OBJECT/ROOT_CHANNEL/Channel 5
  m_CompressedRotationCurves: []
  m_EulerCurves: []
  m_PositionCurves:
  - curve:
      serializedVersion: 2
      m_Curve:
      - serializedVersion: 3
        time: 0.125
        value: {x: 0.008604569, y: 0.00030838445, z: 0.010396099}
        inSlope: {x: 0, y: 0, z: 0}
        outSlope: {x: 0, y: 0, z: 0}
        tangentMode: 0
        weightedMode: 0
        inWeight: {x: 0, y: 0, z: 0}
        outWeight: {x: 0, y: 0, z: 0}
      - serializedVersion: 3
        time: 0.25
        value: {x: 0.007048741, y: -0.0037748583, z: 0.011809144}
        inSlope: {x: 0, y: 0, z: 0}
        outSlope: {x: 0, y: 0, z: 0}
        tangentMode: 0
        weightedMode: 0
        inWeight: {x: 0, y: 0, z: 0}
        outWeight: {x: 0, y: 0, z: 0}
      - serializedVersion: 3
        time: 0.625
        value: {x: 0.00010204315, y: -0.008321555, z: 0.015334285}
        inSlope: {x: 0, y: 0, z: 0}
        outSlope: {x: 0, y: 0, z: 0}
        tangentMode: 0
        weightedMode: 0
        inWeight: {x: 0, y: 0, z: 0}
        outWeight: {x: 0, y: 0, z: 0}
      - serializedVersion: 3
        time: 1
        value: {x: -0.0033282866, y: -0.0069651348, z: 0.017980425}
        inSlope: {x: 0, y: 0, z: 0}
        outSlope: {x: 0, y: 0, z: 0}
        tangentMode: 0
        weightedMode: 0
        inWeight: {x: 0, y: 0, z: 0}
        outWeight: {x: 0, y: 0, z: 0}
      m_PreInfinity: 2
      m_PostInfinity: 2
      m_RotationOrder: 4
    path: OPENSPACE_MODEL_ARMATURE_OBJECT_OBJECT/ROOT_CHANNEL/Channel 11
  - curve:
      serializedVersion: 2
      m_Curve:
      - serializedVersion: 3
        time: 0.125
        value: {x: 0.010461858, y: -0.0012146153, z: 0.009489595}
        inSlope: {x: 0, y: 0, z: 0}
        outSlope: {x: 0, y: 0, z: 0}
        tangentMode: 0
        weightedMode: 0
        inWeight: {x: 0, y: 0, z: 0}
        outWeight: {x: 0, y: 0, z: 0}
      - serializedVersion: 3
        time: 0.25
        value: {x: 0.007827581, y: -0.005935635, z: 0.011391284}
        inSlope: {x: 0, y: 0, z: 0}
        outSlope: {x: 0, y: 0, z: 0}
        tangentMode: 0
        weightedMode: 0
        inWeight: {x: 0, y: 0, z: 0}
        outWeight: {x: 0, y: 0, z: 0}
      - serializedVersion: 3
        time: 0.625
        value: {x: -0.0015142229, y: -0.010001524, z: 0.016893828}
        inSlope: {x: 0, y: 0, z: 0}
        outSlope: {x: 0, y: 0, z: 0}
        tangentMode: 0
        weightedMode: 0
        inWeight: {x: 0, y: 0, z: 0}
        outWeight: {x: 0, y: 0, z: 0}
      - serializedVersion: 3
        time: 1
        value: {x: -0.004633792, y: -0.004608859, z: 0.019398784}
        inSlope: {x: 0, y: 0, z: 0}
        outSlope: {x: 0, y: 0, z: 0}
        tangentMode: 0
        weightedMode: 0
        inWeight: {x: 0, y: 0, z: 0}
        outWeight: {x: 0, y: 0, z: 0}
      m_PreInfinity: 2
      m_PostInfinity: 2
      m_RotationOrder: 4
    path: OPENSPACE_MODEL_ARMATURE_OBJECT_OBJECT/ROOT_CHANNEL/Channel 20
  - curve:
      serializedVersion: 2
      m_Curve:
      - serializedVersion: 3
        time: 0.125
        value: {x: 0.010910734, y: 0.0011553343, z: 0.007821678}
        inSlope: {x: 0, y: 0, z: 0}
        outSlope: {x: 0, y: 0, z: 0}
        tangentMode: 0
        weightedMode: 0
        inWeight: {x: 0, y: 0, z: 0}
        outWeight: {x: 0, y: 0, z: 0}
      - serializedVersion: 3
        time: 0.25
        value: {x: 0.008939649, y: -0.0047760224, z: 0.008945994}
        inSlope: {x: 0, y: 0, z: 0}
        outSlope: {x: 0, y: 0, z: 0}
        tangentMode: 0
        weightedMode: 0
        inWeight: {x: 0, y: 0, z: 0}
        outWeight: {x: 0, y: 0, z: 0}
      - serializedVersion: 3
        time: 0.625
        value: {x: -0.0021831722, y: -0.011188603, z: 0.014609625}
        inSlope: {x: 0, y: 0, z: 0}
        outSlope: {x: 0, y: 0, z: 0}
        tangentMode: 0
        weightedMode: 0
        inWeight: {x: 0, y: 0, z: 0}
        outWeight: {x: 0, y: 0, z: 0}
      - serializedVersion: 3
        time: 1
        value: {x: -0.0062502264, y: -0.004451412, z: 0.017786138}
        inSlope: {x: 0, y: 0, z: 0}
        outSlope: {x: 0, y: 0, z: 0}
        tangentMode: 0
        weightedMode: 0
        inWeight: {x: 0, y: 0, z: 0}
        outWeight: {x: 0, y: 0, z: 0}
      m_PreInfinity: 2
      m_PostInfinity: 2
      m_RotationOrder: 4
    path: OPENSPACE_MODEL_ARMATURE_OBJECT_OBJECT/ROOT_CHANNEL/Channel 5
  m_ScaleCurves:
  - curve:
      serializedVersion: 2
      m_Curve:
      - serializedVersion: 3
        time: 0.125
        value: {x: 1.0357145, y: 1.0357146, z: 1.0357145}
        inSlope: {x: 0, y: 0, z: 0}
        outSlope: {x: 0, y: 0, z: 0}
        tangentMode: 0
        weightedMode: 0
        inWeight: {x: 0, y: 0, z: 0}
        outWeight: {x: 0, y: 0, z: 0}
      - serializedVersion: 3
        time: 0.25
        value: {x: 1.0312504, y: 1.0312505, z: 1.0312504}
        inSlope: {x: 0, y: 0, z: 0}
        outSlope: {x: 0, y: 0, z: 0}
        tangentMode: 0
        weightedMode: 0
        inWeight: {x: 0, y: 0, z: 0}
        outWeight: {x: 0, y: 0, z: 0}
      - serializedVersion: 3
        time: 0.625
        value: {x: 1.0178577, y: 1.0178578, z: 1.0178577}
        inSlope: {x: 0, y: 0, z: 0}
        outSlope: {x: 0, y: 0, z: 0}
        tangentMode: 0
        weightedMode: 0
        inWeight: {x: 0, y: 0, z: 0}
        outWeight: {x: 0, y: 0, z: 0}
      - serializedVersion: 3
        time: 1
        value: {x: 1.004465, y: 1.0044651, z: 1.0044651}
        inSlope: {x: 0, y: 0, z: 0}
        outSlope: {x: 0, y: 0, z: 0}
        tangentMode: 0
        weightedMode: 0
        inWeight: {x: 0, y: 0, z: 0}
        outWeight: {x: 0, y: 0, z: 0}
      m_PreInfinity: 2
      m_PostInfinity: 2
      m_RotationOrder: 4
    path: OPENSPACE_MODEL_ARMATURE_OBJECT_OBJECT/ROOT_CHANNEL/Channel 11
  - curve:
      serializedVersion: 2
      m_Curve:
      - serializedVersion: 3
        time: 0.125
        value: {x: 1.0357149, y: 1.0357155, z: 1.0357145}
        inSlope: {x: 0, y: 0, z: 0}
        outSlope: {x: 0, y: 0, z: 0}
        tangentMode: 0
        weightedMode: 0
        inWeight: {x: 0, y: 0, z: 0}
        outWeight: {x: 0, y: 0, z: 0}
      - serializedVersion: 3
        time: 0.25
        value: {x: 1.0312506, y: 1.0312511, z: 1.0312502}
        inSlope: {x: 0, y: 0, z: 0}
        outSlope: {x: 0, y: 0, z: 0}
        tangentMode: 0
        weightedMode: 0
        inWeight: {x: 0, y: 0, z: 0}
        outWeight: {x: 0, y: 0, z: 0}
      - serializedVersion: 3
        time: 0.625
        value: {x: 1.0178579, y: 1.0178581, z: 1.0178576}
        inSlope: {x: 0, y: 0, z: 0}
        outSlope: {x: 0, y: 0, z: 0}
        tangentMode: 0
        weightedMode: 0
        inWeight: {x: 0, y: 0, z: 0}
        outWeight: {x: 0, y: 0, z: 0}
      - serializedVersion: 3
        time: 1
        value: {x: 1.0044652, y: 1.0044651, z: 1.0044647}
        inSlope: {x: 0, y: 0, z: 0}
        outSlope: {x: 0, y: 0, z: 0}
        tangentMode: 0
        weightedMode: 0
        inWeight: {x: 0, y: 0, z: 0}
        outWeight: {x: 0, y: 0, z: 0}
      m_PreInfinity: 2
      m_PostInfinity: 2
      m_RotationOrder: 4
    path: OPENSPACE_MODEL_ARMATURE_OBJECT_OBJECT/ROOT_CHANNEL/Channel 20
  - curve:
      serializedVersion: 2
      m_Curve:
      - serializedVersion: 3
        time: 0.125
        value: {x: 1.0357146, y: 1.0357147, z: 1.0357146}
        inSlope: {x: 0, y: 0, z: 0}
        outSlope: {x: 0, y: 0, z: 0}
        tangentMode: 0
        weightedMode: 0
        inWeight: {x: 0, y: 0, z: 0}
        outWeight: {x: 0, y: 0, z: 0}
      - serializedVersion: 3
        time: 0.25
        value: {x: 1.0312504, y: 1.0312506, z: 1.0312504}
        inSlope: {x: 0, y: 0, z: 0}
        outSlope: {x: 0, y: 0, z: 0}
        tangentMode: 0
        weightedMode: 0
        inWeight: {x: 0, y: 0, z: 0}
        outWeight: {x: 0, y: 0, z: 0}
      - serializedVersion: 3
        time: 0.625
        value: {x: 1.0178578, y: 1.017858, z: 1.0178578}
        inSlope: {x: 0, y: 0, z: 0}
        outSlope: {x: 0, y: 0, z: 0}
        tangentMode: 0
        weightedMode: 0
        inWeight: {x: 0, y: 0, z: 0}
        outWeight: {x: 0, y: 0, z: 0}
      - serializedVersion: 3
        time: 1
        value: {x: 1.0044652, y: 1.0044656, z: 1.0044651}
        inSlope: {x: 0, y: 0, z: 0}
        outSlope: {x: 0, y: 0, z: 0}
        tangentMode: 0
        weightedMode: 0
        inWeight: {x: 0, y: 0, z: 0}
        outWeight: {x: 0, y: 0, z: 0}
      m_PreInfinity: 2
      m_PostInfinity: 2
      m_RotationOrder: 4
    path: OPENSPACE_MODEL_ARMATURE_OBJECT_OBJECT/ROOT_CHANNEL/Channel 5
  m_FloatCurves: []
  m_PPtrCurves: []
  m_SampleRate: 60
  m_WrapMode: 0
  m_Bounds:
    m_Center: {x: 0, y: 0, z: 0}
    m_Extent: {x: 0, y: 0, z: 0}
  m_ClipBindingConstant:
    genericBindings: []
    pptrCurveMapping: []
  m_AnimationClipSettings:
    serializedVersion: 2
    m_AdditiveReferencePoseClip: {fileID: 0}
    m_AdditiveReferencePoseTime: 0
    m_StartTime: 0
    m_StopTime: 1
    m_OrientationOffsetY: 0
    m_Level: 0
    m_CycleOffset: 0
    m_HasAdditiveReferencePose: 0
    m_LoopTime: 0
    m_LoopBlend: 0
    m_LoopBlendOrientation: 0
    m_LoopBlendPositionY: 0
    m_LoopBlendPositionXZ: 0
    m_KeepOriginalOrientation: 0
    m_KeepOriginalPositionY: 1
    m_KeepOriginalPositionXZ: 0
    m_HeightFromFeet: 0
    m_Mirror: 0
  m_EditorCurves: []
  m_EulerEditorCurves: []
  m_HasGenericRootTransform: 0
  m_HasMotionFloatCurves: 0
  m_Events: []
